selecting  
converting to matrix  
loaded matrix  (404000, 806)  
did  1000  
did  2000  
did  3000  
did  4000  
did  5000  
did  6000  
did  7000  
did  8000  
did  9000  
did  10000  
did  11000  
did  12000  
did  13000  
did  14000  
did  15000  
did  16000  
did  17000  
did  18000  
did  19000  
did  20000  
did  21000  
did  22000  
did  23000  
did  24000  
did  25000  
did  26000  
did  27000  
did  28000  
did  29000  
did  30000  
did  31000  
did  32000  
did  33000  
did  34000  
did  35000  
did  36000  
selecting  
converting to matrix  
loaded matrix  (403000, 806)  
did  1000  
did  2000  
did  3000  
did  4000  
did  5000  
did  6000  
did  7000  
did  8000  
did  9000  
did  10000  
did  11000  
did  12000  
did  13000  
did  14000  
did  15000  
did  16000  
did  17000  
did  18000  
did  19000  
did  20000  
did  21000  
did  22000  
did  23000  
did  24000  
did  25000  
did  26000  
did  27000  
did  28000  
did  29000  
did  30000  
did  31000  
did  32000  
did  33000  
did  34000  
did  35000  
did  36000  
did  37000  
did  38000  
did  39000  
did  40000  
did  41000  
did  42000  
did  43000  
did  44000  
did  45000  
did  46000  
did  47000  
did  48000  
did  49000  
did  50000  
did  51000  
did  52000  
did  53000  
did  54000  
did  55000  
did  56000  
did  57000  
did  58000  
did  59000  
did  60000  
did  61000  
did  62000  
did  63000  
did  64000  
did  65000  
did  66000  
did  67000  
did  68000  
did  69000  
did  70000  
did  71000  
did  72000  
did  73000  
did  74000  
did  75000  
did  76000  
did  77000  
did  78000  
did  79000  
did  80000  
did  81000  
did  82000  
did  83000  
did  84000  
did  85000  
did  86000  
did  87000  
did  88000  
did  89000  
did  90000  
did  91000  
did  92000  
did  93000  
did  94000  
did  95000  
did  96000  
did  97000  
did  98000  
did  99000  
did  100000  
did  101000  
did  102000  
did  103000  
did  104000  
did  105000  
did  106000  
did  107000  
did  108000  
did  109000  
did  110000  
did  111000  
did  112000  
did  113000  
did  114000  
did  115000  
did  116000  
did  117000  
did  118000  
did  119000  
did  120000  
did  121000  
did  122000  
did  123000  
did  124000  
did  125000  
did  126000  
did  127000  
did  128000  
did  129000  
did  130000  
did  131000  
did  132000  
did  133000  
did  134000  
did  135000  
did  136000  
did  137000  
did  138000  
did  139000  
did  140000  
did  141000  
did  142000  
did  143000  
did  144000  
did  145000  
did  146000  
did  147000  
did  148000  
did  149000  
did  150000  
did  151000  
did  152000  
did  153000  
did  154000  
did  155000  
did  156000  
did  157000  
did  158000  
did  159000  
did  160000  
did  161000  
did  162000  
did  163000  
did  164000  
did  165000  
did  166000  
did  167000  
did  168000  
did  169000  
did  170000  
did  171000  
did  172000  
did  173000  
did  174000  
did  175000  
did  176000  
did  177000  
did  178000  
did  179000  
did  180000  
did  181000  
did  182000  
did  183000  
did  184000  
did  185000  
did  186000  
did  187000  
did  188000  
did  189000  
did  190000  
did  191000  
did  192000  
did  193000  
did  194000  
did  195000  
did  196000  
did  197000  
did  198000  
did  199000  
did  200000  
did  201000  
did  202000  
did  203000  
did  204000  
did  205000  
did  206000  
did  207000  
did  208000  
did  209000  
did  210000  
did  211000  
did  212000  
did  213000  
did  214000  
did  215000  
did  216000  
did  217000  
did  218000  
did  219000  
did  220000  
did  221000  
did  222000  
did  223000  
did  224000  
did  225000  
did  226000  
did  227000  
did  228000  
did  229000  
did  230000  
did  231000  
did  232000  
did  233000  
did  234000  
did  235000  
did  236000  
did  237000  
did  238000  
did  239000  
did  240000  
did  241000  
did  242000  
did  243000  
did  244000  
did  245000  
did  246000  
did  247000  
did  248000  
did  249000  
did  250000  
did  251000  
did  252000  
did  253000  
did  254000  
did  255000  
did  256000  
did  257000  
did  258000  
did  259000  
did  260000  
did  261000  
did  262000  
did  263000  
did  264000  
did  265000  
did  266000  
did  267000  
did  268000  
did  269000  
did  270000  
did  271000  
did  272000  
did  273000  
did  274000  
did  275000  
did  276000  
did  277000  
did  278000  
did  279000  
did  280000  
did  281000  
did  282000  
did  283000  
did  284000  
did  285000  
did  286000  
did  287000  
did  288000  
did  289000  
did  290000  
did  291000  
did  292000  
did  293000  
did  294000  
did  295000  
did  296000  
did  297000  
did  298000  
did  299000  
did  300000  
did  301000  
did  302000  
did  303000  
did  304000  
did  305000  
did  306000  
did  307000  
did  308000  
did  309000  
did  310000  
did  311000  
did  312000  
did  313000  
did  314000  
did  315000  
did  316000  
did  317000  
did  318000  
did  319000  
did  320000  
did  321000  
did  322000  
did  323000  
did  324000  
did  325000  
did  326000  
did  327000  
did  328000  
did  329000  
did  330000  
did  331000  
did  332000  
did  333000  
did  334000  
did  335000  
did  336000  
did  337000  
did  338000  
did  339000  
did  340000  
did  341000  
did  342000  
did  343000  
did  344000  
did  345000  
did  346000  
did  347000  
did  348000  
did  349000  
did  350000  
did  351000  
did  352000  
did  353000  
did  354000  
did  355000  
did  356000  
did  357000  
did  358000  
did  359000  
did  360000  
did  361000  
did  362000  
did  363000  
did  364000  
did  365000  
did  366000  
did  367000  
did  368000  
did  369000  
did  370000  
did  371000  
did  372000  
did  373000  
did  374000  
did  375000  
did  376000  
did  377000  
did  378000  
did  379000  
did  380000  
did  381000  
did  382000  
did  383000  
did  384000  
did  385000  
did  386000  
did  387000  
did  388000  
did  389000  
did  390000  
did  391000  
did  392000  
did  393000  
did  394000  
did  395000  
did  396000  
did  397000  
did  398000  
did  399000  
did  400000  
did  401000  
did  402000  
did  403000  
numping  
numped  
saving  
saved  
doing  val  
selecting  
doing  test  
selecting  
converting to matrix  
loaded matrix  (404000, 806)  
did  1000  
did  2000  
did  3000  
did  4000  
did  5000  
did  6000  
did  7000  
did  8000  
did  9000  
did  10000  
did  11000  
did  12000  
did  13000  
did  14000  
did  15000  
did  16000  
did  17000  
did  18000  
did  19000  
did  20000  
did  21000  
did  22000  
did  23000  
did  24000  
did  25000  
did  26000  
did  27000  
did  28000  
did  29000  
did  30000  
did  31000  
did  32000  
did  33000  
did  34000  
did  35000  
did  36000  
did  37000  
did  38000  
did  39000  
did  40000  
did  41000  
did  42000  
did  43000  
did  44000  
did  45000  
did  46000  
did  47000  
did  48000  
did  49000  
did  50000  
did  51000  
did  52000  
did  53000  
did  54000  
did  55000  
did  56000  
did  57000  
did  58000  
did  59000  
did  60000  
did  61000  
did  62000  
did  63000  
did  64000  
did  65000  
did  66000  
did  67000  
did  68000  
did  69000  
did  70000  
did  71000  
did  72000  
did  73000  
did  74000  
did  75000  
did  76000  
did  77000  
did  78000  
did  79000  
did  80000  
did  81000  
did  82000  
did  83000  
did  84000  
did  85000  
did  86000  
did  87000  
did  88000  
did  89000  
did  90000  
did  91000  
did  92000  
did  93000  
did  94000  
did  95000  
did  96000  
did  97000  
did  98000  
did  99000  
did  100000  
did  101000  
did  102000  
did  103000  
did  104000  
did  105000  
did  106000  
did  107000  
did  108000  
did  109000  
did  110000  
did  111000  
did  112000  
did  113000  
did  114000  
did  115000  
did  116000  
did  117000  
did  118000  
did  119000  
did  120000  
did  121000  
did  122000  
did  123000  
did  124000  
did  125000  
did  126000  
did  127000  
did  128000  
did  129000  
did  130000  
did  131000  
did  132000  
did  133000  
did  134000  
did  135000  
did  136000  
did  137000  
did  138000  
did  139000  
did  140000  
did  141000  
did  142000  
did  143000  
did  144000  
did  145000  
did  146000  
did  147000  
did  148000  
did  149000  
did  150000  
did  151000  
did  152000  
did  153000  
did  154000  
did  155000  
did  156000  
did  157000  
did  158000  
did  159000  
did  160000  
did  161000  
did  162000  
did  163000  
did  164000  
did  165000  
did  166000  
did  167000  
did  168000  
did  169000  
did  170000  
did  171000  
did  172000  
did  173000  
did  174000  
did  175000  
did  176000  
did  177000  
did  178000  
did  179000  
did  180000  
did  181000  
did  182000  
did  183000  
did  184000  
did  185000  
did  186000  
did  187000  
did  188000  
did  189000  
did  190000  
did  191000  
did  192000  
did  193000  
did  194000  
did  195000  
did  196000  
did  197000  
did  198000  
did  199000  
did  200000  
did  201000  
did  202000  
did  203000  
did  204000  
did  205000  
did  206000  
did  207000  
did  208000  
did  209000  
did  210000  
did  211000  
did  212000  
did  213000  
did  214000  
did  215000  
did  216000  
did  217000  
did  218000  
did  219000  
did  220000  
did  221000  
did  222000  
did  223000  
did  224000  
did  225000  
did  226000  
did  227000  
did  228000  
did  229000  
did  230000  
did  231000  
did  232000  
did  233000  
did  234000  
did  235000  
did  236000  
did  237000  
did  238000  
did  239000  
did  240000  
did  241000  
did  242000  
did  243000  
did  244000  
did  245000  
did  246000  
did  247000  
did  248000  
did  249000  
did  250000  
did  251000  
did  252000  
did  253000  
did  254000  
did  255000  
did  256000  
did  257000  
did  258000  
did  259000  
did  260000  
did  261000  
did  262000  
did  263000  
did  264000  
did  265000  
did  266000  
did  267000  
did  268000  
did  269000  
did  270000  
did  271000  
did  272000  
did  273000  
did  274000  
did  275000  
did  276000  
did  277000  
did  278000  
did  279000  
did  280000  
did  281000  
did  282000  
did  283000  
did  284000  
did  285000  
did  286000  
did  287000  
did  288000  
did  289000  
did  290000  
did  291000  
did  292000  
did  293000  
did  294000  
did  295000  
did  296000  
did  297000  
did  298000  
did  299000  
did  300000  
did  301000  
did  302000  
did  303000  
did  304000  
did  305000  
did  306000  
did  307000  
did  308000  
did  309000  
did  310000  
did  311000  
did  312000  
did  313000  
did  314000  
did  315000  
did  316000  
did  317000  
did  318000  
did  319000  
did  320000  
did  321000  
did  322000  
did  323000  
did  324000  
did  325000  
did  326000  
did  327000  
did  328000  
did  329000  
did  330000  
did  331000  
did  332000  
did  333000  
did  334000  
did  335000  
did  336000  
did  337000  
did  338000  
did  339000  
did  340000  
did  341000  
did  342000  
did  343000  
did  344000  
did  345000  
did  346000  
did  347000  
did  348000  
did  349000  
did  350000  
did  351000  
did  352000  
did  353000  
did  354000  
did  355000  
did  356000  
did  357000  
did  358000  
did  359000  
did  360000  
did  361000  
did  362000  
did  363000  
did  364000  
did  365000  
did  366000  
did  367000  
did  368000  
did  369000  
did  370000  
did  371000  
did  372000  
did  373000  
did  374000  
did  375000  
did  376000  
did  377000  
did  378000  
did  379000  
did  380000  
did  381000  
did  382000  
did  383000  
did  384000  
did  385000  
did  386000  
did  387000  
did  388000  
did  389000  
did  390000  
did  391000  
did  392000  
did  393000  
did  394000  
did  395000  
did  396000  
did  397000  
did  398000  
did  399000  
did  400000  
did  401000  
did  402000  
did  403000  
did  404000  
numping  
numped  
saving  
saved  
doing  train  
selecting  
converting to matrix  
loaded matrix  (1211000, 806)  
did  1000  
did  2000  
did  3000  
did  4000  
did  5000  
did  6000  
did  7000  
did  8000  
did  9000  
did  10000  
did  11000  
did  12000  
did  13000  
did  14000  
did  15000  
did  16000  
did  17000  
did  18000  
did  19000  
did  20000  
did  21000  
did  22000  
did  23000  
did  24000  
did  25000  
did  26000  
did  27000  
did  28000  
did  29000  
did  30000  
did  31000  
did  32000  
did  33000  
did  34000  
did  35000  
did  36000  
did  37000  
did  38000  
did  39000  
did  40000  
did  41000  
did  42000  
did  43000  
did  44000  
did  45000  
did  46000  
did  47000  
did  48000  
did  49000  
did  50000  
did  51000  
did  52000  
did  53000  
did  54000  
did  55000  
did  56000  
did  57000  
did  58000  
did  59000  
did  60000  
did  61000  
did  62000  
did  63000  
did  64000  
did  65000  
did  66000  
did  67000  
did  68000  
did  69000  
did  70000  
did  71000  
did  72000  
did  73000  
did  74000  
did  75000  
did  76000  
did  77000  
did  78000  
did  79000  
did  80000  
did  81000  
did  82000  
did  83000  
did  84000  
did  85000  
did  86000  
did  87000  
did  88000  
did  89000  
did  90000  
did  91000  
did  92000  
did  93000  
did  94000  
did  95000  
did  96000  
did  97000  
did  98000  
did  99000  
did  100000  
did  101000  
did  102000  
did  103000  
did  104000  
did  105000  
did  106000  
did  107000  
did  108000  
did  109000  
did  110000  
did  111000  
did  112000  
did  113000  
did  114000  
did  115000  
did  116000  
did  117000  
did  118000  
did  119000  
did  120000  
did  121000  
did  122000  
did  123000  
did  124000  
did  125000  
did  126000  
did  127000  
did  128000  
did  129000  
did  130000  
did  131000  
did  132000  
did  133000  
did  134000  
did  135000  
did  136000  
did  137000  
did  138000  
did  139000  
did  140000  
did  141000  
did  142000  
did  143000  
did  144000  
did  145000  
did  146000  
did  147000  
did  148000  
did  149000  
did  150000  
did  151000  
did  152000  
did  153000  
did  154000  
did  155000  
did  156000  
did  157000  
did  158000  
did  159000  
did  160000  
did  161000  
did  162000  
did  163000  
did  164000  
did  165000  
did  166000  
did  167000  
did  168000  
did  169000  
did  170000  
did  171000  
did  172000  
did  173000  
did  174000  
did  175000  
did  176000  
did  177000  
did  178000  
did  179000  
did  180000  
did  181000  
did  182000  
did  183000  
did  184000  
did  185000  
did  186000  
did  187000  
did  188000  
did  189000  
did  190000  
did  191000  
did  192000  
did  193000  
did  194000  
did  195000  
did  196000  
did  197000  
did  198000  
did  199000  
did  200000  
did  201000  
did  202000  
did  203000  
did  204000  
did  205000  
did  206000  
did  207000  
did  208000  
did  209000  
did  210000  
did  211000  
did  212000  
did  213000  
did  214000  
did  215000  
did  216000  
did  217000  
did  218000  
did  219000  
did  220000  
did  221000  
did  222000  
did  223000  
did  224000  
did  225000  
did  226000  
did  227000  
did  228000  
did  229000  
did  230000  
did  231000  
did  232000  
did  233000  
did  234000  
did  235000  
did  236000  
did  237000  
did  238000  
did  239000  
did  240000  
did  241000  
did  242000  
did  243000  
did  244000  
did  245000  
did  246000  
did  247000  
did  248000  
did  249000  
did  250000  
did  251000  
did  252000  
did  253000  
did  254000  
did  255000  
did  256000  
did  257000  
did  258000  
did  259000  
did  260000  
did  261000  
did  262000  
did  263000  
did  264000  
did  265000  
did  266000  
did  267000  
did  268000  
did  269000  
did  270000  
did  271000  
did  272000  
did  273000  
did  274000  
did  275000  
did  276000  
did  277000  
did  278000  
did  279000  
did  280000  
did  281000  
did  282000  
did  283000  
did  284000  
did  285000  
did  286000  
did  287000  
did  288000  
did  289000  
did  290000  
did  291000  
did  292000  
did  293000  
did  294000  
did  295000  
did  296000  
did  297000  
did  298000  
did  299000  
did  300000  
did  301000  
did  302000  
did  303000  
did  304000  
did  305000  
did  306000  
did  307000  
did  308000  
did  309000  
did  310000  
did  311000  
did  312000  
did  313000  
did  314000  
did  315000  
did  316000  
did  317000  
did  318000  
did  319000  
did  320000  
did  321000  
did  322000  
did  323000  
did  324000  
did  325000  
did  326000  
did  327000  
did  328000  
did  329000  
did  330000  
did  331000  
did  332000  
did  333000  
did  334000  
did  335000  
did  336000  
did  337000  
did  338000  
did  339000  
did  340000  
did  341000  
did  342000  
did  343000  
did  344000  
did  345000  
did  346000  
did  347000  
did  348000  
did  349000  
did  350000  
did  351000  
did  352000  
did  353000  
did  354000  
did  355000  
did  356000  
did  357000  
did  358000  
did  359000  
did  360000  
did  361000  
did  362000  
did  363000  
did  364000  
did  365000  
did  366000  
did  367000  
did  368000  
did  369000  
did  370000  
did  371000  
did  372000  
did  373000  
did  374000  
did  375000  
did  376000  
did  377000  
did  378000  
did  379000  
did  380000  
did  381000  
did  382000  
did  383000  
did  384000  
did  385000  
did  386000  
did  387000  
did  388000  
did  389000  
did  390000  
did  391000  
did  392000  
did  393000  
did  394000  
did  395000  
did  396000  
did  397000  
did  398000  
did  399000  
did  400000  
did  401000  
did  402000  
did  403000  
did  404000  
did  405000  
did  406000  
did  407000  
did  408000  
did  409000  
did  410000  
did  411000  
did  412000  
did  413000  
did  414000  
did  415000  
did  416000  
did  417000  
did  418000  
did  419000  
did  420000  
did  421000  
did  422000  
did  423000  
did  424000  
did  425000  
did  426000  
did  427000  
did  428000  
did  429000  
did  430000  
did  431000  
did  432000  
did  433000  
did  434000  
did  435000  
did  436000  
did  437000  
did  438000  
did  439000  
did  440000  
did  441000  
did  442000  
did  443000  
did  444000  
did  445000  
did  446000  
did  447000  
did  448000  
did  449000  
did  450000  
did  451000  
did  452000  
did  453000  
did  454000  
did  455000  
did  456000  
did  457000  
did  458000  
did  459000  
did  460000  
did  461000  
did  462000  
did  463000  
did  464000  
did  465000  
did  466000  
did  467000  
did  468000  
did  469000  
did  470000  
did  471000  
did  472000  
did  473000  
did  474000  
did  475000  
did  476000  
did  477000  
did  478000  
did  479000  
did  480000  
did  481000  
did  482000  
did  483000  
did  484000  
did  485000  
did  486000  
did  487000  
did  488000  
did  489000  
did  490000  
did  491000  
did  492000  
did  493000  
did  494000  
did  495000  
did  496000  
did  497000  
did  498000  
did  499000  
did  500000  
did  501000  
did  502000  
did  503000  
did  504000  
did  505000  
did  506000  
did  507000  
did  508000  
did  509000  
did  510000  
did  511000  
did  512000  
did  513000  
did  514000  
did  515000  
did  516000  
did  517000  
did  518000  
did  519000  
did  520000  
did  521000  
did  522000  
did  523000  
did  524000  
did  525000  
did  526000  
did  527000  
did  528000  
did  529000  
did  530000  
did  531000  
did  532000  
did  533000  
did  534000  
did  535000  
did  536000  
did  537000  
did  538000  
did  539000  
did  540000  
did  541000  
did  542000  
did  543000  
did  544000  
did  545000  
did  546000  
did  547000  
did  548000  
did  549000  
did  550000  
did  551000  
did  552000  
did  553000  
did  554000  
did  555000  
did  556000  
did  557000  
did  558000  
did  559000  
did  560000  
did  561000  
did  562000  
did  563000  
did  564000  
did  565000  
did  566000  
did  567000  
did  568000  
did  569000  
did  570000  
did  571000  
did  572000  
did  573000  
did  574000  
did  575000  
did  576000  
did  577000  
did  578000  
did  579000  
did  580000  
did  581000  
did  582000  
did  583000  
did  584000  
did  585000  
did  586000  
did  587000  
did  588000  
did  589000  
did  590000  
did  591000  
did  592000  
did  593000  
did  594000  
did  595000  
did  596000  
did  597000  
did  598000  
did  599000  
did  600000  
did  601000  
did  602000  
did  603000  
did  604000  
did  605000  
did  606000  
did  607000  
did  608000  
did  609000  
did  610000  
did  611000  
did  612000  
did  613000  
did  614000  
did  615000  
did  616000  
did  617000  
did  618000  
did  619000  
did  620000  
did  621000  
did  622000  
did  623000  
did  624000  
did  625000  
did  626000  
did  627000  
did  628000  
did  629000  
did  630000  
did  631000  
did  632000  
did  633000  
did  634000  
did  635000  
did  636000  
did  637000  
did  638000  
did  639000  
did  640000  
did  641000  
did  642000  
did  643000  
did  644000  
did  645000  
did  646000  
did  647000  
did  648000  
did  649000  
did  650000  
did  651000  
did  652000  
did  653000  
did  654000  
did  655000  
did  656000  
did  657000  
did  658000  
did  659000  
did  660000  
did  661000  
did  662000  
did  663000  
did  664000  
did  665000  
did  666000  
did  667000  
did  668000  
did  669000  
did  670000  
did  671000  
did  672000  
did  673000  
did  674000  
did  675000  
did  676000  
did  677000  
did  678000  
did  679000  
did  680000  
did  681000  
did  682000  
did  683000  
did  684000  
did  685000  
did  686000  
did  687000  
did  688000  
did  689000  
did  690000  
did  691000  
did  692000  
did  693000  
did  694000  
did  695000  
did  696000  
did  697000  
did  698000  
did  699000  
did  700000  
did  701000  
did  702000  
did  703000  
did  704000  
did  705000  
did  706000  
did  707000  
did  708000  
did  709000  
did  710000  
did  711000  
did  712000  
did  713000  
did  714000  
did  715000  
did  716000  
did  717000  
did  718000  
did  719000  
did  720000  
did  721000  
did  722000  
did  723000  
did  724000  
did  725000  
did  726000  
did  727000  
did  728000  
did  729000  
did  730000  
did  731000  
did  732000  
did  733000  
did  734000  
did  735000  
did  736000  
did  737000  
did  738000  
did  739000  
did  740000  
did  741000  
did  742000  
did  743000  
did  744000  
did  745000  
did  746000  
did  747000  
did  748000  
did  749000  
did  750000  
did  751000  
did  752000  
did  753000  
did  754000  
did  755000  
did  756000  
did  757000  
did  758000  
did  759000  
did  760000  
did  761000  
did  762000  
did  763000  
did  764000  
did  765000  
did  766000  
did  767000  
did  768000  
did  769000  
did  770000  
did  771000  
did  772000  
did  773000  
did  774000  
did  775000  
did  776000  
did  777000  
did  778000  
did  779000  
did  780000  
did  781000  
did  782000  
did  783000  
did  784000  
did  785000  
did  786000  
did  787000  
did  788000  
did  789000  
did  790000  
did  791000  
did  792000  
did  793000  
did  794000  
did  795000  
did  796000  
did  797000  
did  798000  
did  799000  
did  800000  
did  801000  
did  802000  
did  803000  
did  804000  
did  805000  
did  806000  
did  807000  
did  808000  
did  809000  
did  810000  
did  811000  
did  812000  
did  813000  
did  814000  
did  815000  
did  816000  
did  817000  
did  818000  
did  819000  
did  820000  
did  821000  
did  822000  
did  823000  
did  824000  
did  825000  
did  826000  
did  827000  
did  828000  
did  829000  
did  830000  
did  831000  
did  832000  
did  833000  
did  834000  
did  835000  
did  836000  
did  837000  
did  838000  
did  839000  
did  840000  
did  841000  
did  842000  
did  843000  
did  844000  
did  845000  
did  846000  
did  847000  
did  848000  
did  849000  
did  850000  
did  851000  
did  852000  
did  853000  
did  854000  
did  855000  
did  856000  
did  857000  
did  858000  
did  859000  
did  860000  
did  861000  
did  862000  
did  863000  
did  864000  
did  865000  
did  866000  
did  867000  
did  868000  
did  869000  
did  870000  
did  871000  
did  872000  
did  873000  
did  874000  
did  875000  
did  876000  
did  877000  
did  878000  
did  879000  
did  880000  
did  881000  
did  882000  
did  883000  
did  884000  
did  885000  
did  886000  
did  887000  
did  888000  
did  889000  
did  890000  
did  891000  
did  892000  
did  893000  
did  894000  
did  895000  
did  896000  
did  897000  
did  898000  
did  899000  
did  900000  
did  901000  
did  902000  
did  903000  
did  904000  
did  905000  
did  906000  
did  907000  
did  908000  
did  909000  
did  910000  
did  911000  
did  912000  
did  913000  
did  914000  
did  915000  
did  916000  
did  917000  
did  918000  
did  919000  
did  920000  
did  921000  
did  922000  
did  923000  
did  924000  
did  925000  
did  926000  
did  927000  
did  928000  
did  929000  
did  930000  
did  931000  
did  932000  
did  933000  
did  934000  
did  935000  
did  936000  
did  937000  
did  938000  
did  939000  
did  940000  
did  941000  
did  942000  
did  943000  
did  944000  
did  945000  
did  946000  
did  947000  
did  948000  
did  949000  
did  950000  
did  951000  
did  952000  
did  953000  
did  954000  
did  955000  
did  956000  
did  957000  
did  958000  
did  959000  
did  960000  
did  961000  
did  962000  
did  963000  
did  964000  
did  965000  
did  966000  
did  967000  
did  968000  
did  969000  
did  970000  
did  971000  
did  972000  
did  973000  
did  974000  
did  975000  
did  976000  
did  977000  
did  978000  
did  979000  
did  980000  
did  981000  
did  982000  
did  983000  
did  984000  
did  985000  
did  986000  
did  987000  
did  988000  
did  989000  
did  990000  
did  991000  
did  992000  
did  993000  
did  994000  
did  995000  
did  996000  
did  997000  
did  998000  
did  999000  
did  1000000  
did  1001000  
did  1002000  
did  1003000  
did  1004000  
did  1005000  
did  1006000  
did  1007000  
did  1008000  
did  1009000  
did  1010000  
did  1011000  
did  1012000  
did  1013000  
did  1014000  
did  1015000  
did  1016000  
did  1017000  
did  1018000  
did  1019000  
did  1020000  
did  1021000  
did  1022000  
did  1023000  
did  1024000  
did  1025000  
did  1026000  
did  1027000  
did  1028000  
did  1029000  
did  1030000  
did  1031000  
did  1032000  
did  1033000  
did  1034000  
did  1035000  
did  1036000  
did  1037000  
did  1038000  
did  1039000  
did  1040000  
did  1041000  
did  1042000  
did  1043000  
did  1044000  
did  1045000  
did  1046000  
did  1047000  
did  1048000  
did  1049000  
did  1050000  
did  1051000  
did  1052000  
did  1053000  
did  1054000  
did  1055000  
did  1056000  
did  1057000  
did  1058000  
did  1059000  
did  1060000  
did  1061000  
did  1062000  
did  1063000  
did  1064000  
did  1065000  
did  1066000  
did  1067000  
did  1068000  
did  1069000  
did  1070000  
did  1071000  
did  1072000  
did  1073000  
did  1074000  
did  1075000  
did  1076000  
did  1077000  
did  1078000  
did  1079000  
did  1080000  
did  1081000  
did  1082000  
did  1083000  
did  1084000  
did  1085000  
did  1086000  
did  1087000  
did  1088000  
did  1089000  
did  1090000  
did  1091000  
did  1092000  
did  1093000  
did  1094000  
did  1095000  
did  1096000  
did  1097000  
did  1098000  
did  1099000  
did  1100000  
did  1101000  
did  1102000  
did  1103000  
did  1104000  
did  1105000  
did  1106000  
did  1107000  
did  1108000  
did  1109000  
did  1110000  
did  1111000  
did  1112000  
did  1113000  
did  1114000  
did  1115000  
did  1116000  
did  1117000  
did  1118000  
did  1119000  
did  1120000  
did  1121000  
did  1122000  
did  1123000  
did  1124000  
did  1125000  
did  1126000  
did  1127000  
did  1128000  
did  1129000  
did  1130000  
did  1131000  
did  1132000  
did  1133000  
did  1134000  
did  1135000  
did  1136000  
did  1137000  
did  1138000  
did  1139000  
did  1140000  
did  1141000  
did  1142000  
did  1143000  
did  1144000  
did  1145000  
did  1146000  
did  1147000  
did  1148000  
did  1149000  
did  1150000  
did  1151000  
did  1152000  
did  1153000  
did  1154000  
did  1155000  
did  1156000  
did  1157000  
did  1158000  
did  1159000  
did  1160000  
did  1161000  
did  1162000  
did  1163000  
did  1164000  
did  1165000  
did  1166000  
did  1167000  
did  1168000  
did  1169000  
did  1170000  
did  1171000  
did  1172000  
did  1173000  
did  1174000  
did  1175000  
did  1176000  
did  1177000  
did  1178000  
did  1179000  
did  1180000  
did  1181000  
did  1182000  
did  1183000  
did  1184000  
did  1185000  
did  1186000  
did  1187000  
did  1188000  
did  1189000  
did  1190000  
did  1191000  
did  1192000  
did  1193000  
did  1194000  
did  1195000  
did  1196000  
did  1197000  
did  1198000  
did  1199000  
did  1200000  
did  1201000  
did  1202000  
did  1203000  
did  1204000  
did  1205000  
did  1206000  
did  1207000  
did  1208000  
did  1209000  
did  1210000  
did  1211000  
numping  
numped  
saving  
saved  
